<?xml version="1.0" encoding="utf-8"?>
<!-- Generator: Adobe Illustrator 24.3.0, SVG Export Plug-In . SVG Version: 6.00 Build 0)  -->
<svg version="1.1" id="Слой_1" xmlns="http://www.w3.org/2000/svg" xmlns:xlink="http://www.w3.org/1999/xlink" x="0px" y="0px"
	 viewBox="0 0 320 154" style="enable-background:new 0 0 320 154;" xml:space="preserve">
<style type="text/css">
	.st0{fill:#C7135C;}
	.st1{fill:#595959;}
	.st2{fill:#F2C9DA;}
	.st3{fill:#E285AB;}
	.st4{fill:#E182A8;}
</style>
<g>
	<path class="st0" d="M-0.5,72.6c0-0.4,0-0.8,0-1.2c0-0.3,0.1-0.6,0.1-1c0-0.3-0.1-0.7,0-1c0.2-0.5,0.1-0.9,0.1-1.4
		c0-0.3,0.1-0.5,0.2-0.8c0-0.3,0-0.5,0.1-0.7c0.1-0.2,0-0.5,0-0.7c0-0.2,0.2-0.4,0.1-0.6c-0.1-0.5,0.1-0.9,0.2-1.4
		c0.1-0.4,0-0.9,0.3-1.3c0-1,0.3-1.8,0.5-2.8c0.1-0.7,0.3-1.5,0.6-2.2c0.3-0.8,0.4-1.6,0.7-2.4c0.3-0.8,0.5-1.6,0.8-2.4
		c0.3-0.6,0.4-1.3,0.7-2c0.2-0.6,0.5-1.2,0.7-1.9c0.4-1.2,1-2.3,1.5-3.5c0.5-1.2,1-2.3,1.6-3.3c0.5-0.8,0.9-1.7,1.4-2.5
		c0.5-1,1.2-1.9,1.7-2.9c0.4-0.7,0.9-1.3,1.3-2c0.9-1.3,1.8-2.6,2.7-3.8c0.5-0.7,1.1-1.3,1.6-2c0.7-0.9,1.5-1.7,2.3-2.6
		c1.5-1.8,3.2-3.3,4.8-5c0.8-0.8,1.8-1.6,2.7-2.4c1-0.9,2-1.7,3.1-2.4c0.8-0.6,1.7-1.2,2.5-1.7c1.5-1,3-2,4.5-2.9
		c0.8-0.5,1.6-0.9,2.3-1.3c1.4-0.8,2.9-1.5,4.3-2.2c1-0.5,2.1-1,3.2-1.4c0.9-0.3,1.7-0.6,2.6-1c1.3-0.5,2.6-0.9,3.9-1.3
		c0.9-0.3,1.8-0.5,2.7-0.8c0.9-0.3,1.9-0.4,2.8-0.8c0.3-0.1,0.6-0.1,1-0.2c0.8-0.2,1.5-0.2,2.3-0.5c0.5,0.1,0.9-0.2,1.4-0.2
		c0.3,0,0.5-0.1,0.8-0.2c0.3,0,0.6,0.1,0.8-0.2c0,0,0.1,0,0.2,0C65.3,2,66,2,66.7,1.9c0.3,0,0.6-0.1,1-0.2c0.3,0,0.7,0.1,1,0
		c0.6-0.2,1.3-0.1,1.9-0.1c1.2-0.1,2.3-0.2,3.5-0.2c1.1,0,2.3,0,3.4,0c0.5,0,1.1,0.1,1.6,0.1c0.6,0,1.1-0.1,1.7,0
		c0.6,0.1,1.1,0.1,1.7,0.1c0.3,0,0.6,0.2,0.9,0.2c0.3,0,0.6-0.1,0.8,0.1c0,0,0.2,0,0.2,0c0.5-0.1,1,0.1,1.5,0.2c0.5,0,0.9,0,1.4,0.2
		c0.3,0.1,0.7,0.1,1,0.2c0.3,0.1,0.7,0,1,0.2c1,0.4,2.1,0.4,3.1,0.8c0.7,0.2,1.4,0.3,2,0.5c0.6,0.2,1.3,0.3,2,0.5
		c0.2,0.3,0.6,0.1,0.8,0.3C97.4,5,97.8,5,98.1,5c0.3,0.1,0.6,0.2,0.9,0.2c0.3,0.1,0.6,0.2,0.8,0.3c0.9,0.3,1.9,0.7,2.8,1
		c1.2,0.4,2.3,1,3.4,1.5c1.4,0.6,2.7,1.3,4,2c1.7,0.9,3.4,1.8,5,2.9c1.1,0.7,2.2,1.4,3.3,2.2c0.7,0.5,1.5,1,2.2,1.5
		c1,0.7,1.9,1.5,2.8,2.2c0.4,0.3,0.7,0.6,1.1,0.9c2.4,2.1,4.5,4.3,6.7,6.6c0.7,0.7,1.4,1.6,2,2.4c0.8,1,1.7,2,2.4,3.1
		c1.2,1.7,2.5,3.4,3.6,5.2c0.7,1.1,1.3,2.2,1.9,3.3c1,1.7,1.8,3.5,2.7,5.3c0.6,1.2,1.1,2.5,1.6,3.8c0.3,0.8,0.6,1.5,0.9,2.3
		c0.2,0.4,0.3,0.8,0.4,1.3c0.1,0.4,0.2,0.9,0.4,1.3c0.1,0.4,0.3,0.8,0.4,1.3c0.2,1.1,0.6,2.2,0.9,3.3c0.2,0.8,0.4,1.6,0.6,2.4
		c0.2,0.6,0.3,1.4,0.4,2c0.2,0.8,0.2,1.6,0.4,2.3c0.1,0.3,0,0.7,0.1,1.1c0.2,0.6,0.2,1.2,0.2,1.8c0,0.4,0.2,0.7,0.2,1.1
		c0,0.3-0.1,0.7,0,1c0.2,0.4,0.1,0.9,0.1,1.3c0,0.9,0.2,1.8,0.2,2.7c-0.1,0.9,0,1.9,0,2.8c0,0.9,0,1.8,0,2.7c0,1.1-0.3,2.2-0.2,3.4
		c-0.2,0.6-0.1,1.2-0.2,1.8c-0.1,0.4-0.1,0.9-0.2,1.3c-0.1,0.4,0,0.9-0.2,1.3c-0.2,0.8-0.2,1.6-0.5,2.3c-0.1,0.2,0,0.4,0,0.6
		c0,0.2-0.1,0.3-0.1,0.5c-0.1,0.4,0,0.8-0.2,1.1c-0.2,0.4,0,0.8-0.3,1.1c0,1.1-0.4,2.1-0.7,3.1c-0.2,0.9-0.5,1.8-0.8,2.7
		c-0.3,0.8-0.5,1.7-0.8,2.5c-0.3,0.8-0.6,1.6-0.9,2.4c-0.3,1-0.8,1.8-1.1,2.8c-0.2,0.6-0.5,1.1-0.8,1.7c-0.4,0.9-0.8,1.9-1.3,2.7
		c-0.5,0.9-1,1.9-1.5,2.8c-0.6,1.1-1.3,2.1-1.8,3.2c-0.3,0.6-0.8,1.1-1.1,1.6c-0.4,0.8-1,1.4-1.5,2.2c-0.4,0.6-0.8,1-1.2,1.6
		c-0.6,0.9-1.4,1.7-2,2.7c0,0-0.1,0.1-0.1,0.1c-0.5,0.6-1.1,1.2-1.6,1.8c-0.7,0.9-1.5,1.5-2.2,2.4c-0.4,0.5-0.8,1-1.2,1.3
		c-0.9,0.7-1.7,1.6-2.5,2.4c-0.8,0.7-1.6,1.4-2.5,2.1c-1.1,1-2.3,1.9-3.6,2.8c-1.5,1.1-3,2.2-4.6,3.1c-1,0.6-2.1,1.2-3.1,1.8
		c-0.8,0.5-1.8,0.7-2.5,1.4c-0.6,0.1-1.1,0.6-1.7,0.8c-0.5,0.2-1.1,0.5-1.6,0.7c-1.2,0.5-2.3,1-3.5,1.5c-0.7,0.3-1.5,0.6-2.2,0.8
		c-1,0.3-2.1,0.7-3.1,1c-0.7,0.2-1.3,0.3-2,0.6c-0.5,0.2-1,0.2-1.5,0.4c-0.5,0.2-1,0.3-1.4,0.4c-0.5,0.2-1.2,0.2-1.7,0.4
		c-0.5,0.2-0.9,0.1-1.4,0.3c-0.4,0.2-1,0-1.4,0.2c-0.3,0.2-0.7,0.1-1,0.2c-0.3,0.1-0.7,0-1,0.1c-0.8,0.2-1.6,0.3-2.4,0.3
		c-0.4,0.3-0.9,0.1-1.4,0.2c-0.8,0.2-1.6,0-2.4,0.2c-0.8,0.2-1.7,0.1-2.5,0.1c-1.4,0-2.9,0-4.3,0c-0.8-0.1-1.7,0.1-2.5-0.1
		c-0.7-0.2-1.5,0.1-2.3-0.2c-0.5-0.1-1,0-1.5-0.2c-0.5-0.1-1,0-1.5-0.2c-0.6-0.2-1.3-0.2-2-0.3c-0.9-0.1-1.8-0.3-2.8-0.5
		c-1-0.2-2-0.4-3-0.6c-1.3-0.3-2.6-0.7-3.9-1c-0.5-0.1-1-0.3-1.5-0.5c-0.5-0.2-1-0.3-1.6-0.5c-0.6-0.2-1.3-0.5-1.9-0.7
		c-0.7-0.2-1.3-0.4-1.9-0.8c-0.5,0-0.9-0.4-1.4-0.5c-0.5-0.1-0.9-0.4-1.3-0.6c-2.2-1-4.3-2.1-6.4-3.2c-0.1,0-0.1-0.1-0.2-0.1
		c-0.8-0.5-1.6-1-2.4-1.5c-1-0.6-2-1.1-2.8-1.8c-0.9-0.7-1.9-1.3-2.8-2.1c-0.7-0.6-1.4-1.1-2.1-1.6c-0.4-0.3-0.8-0.7-1.2-1.1
		c-0.9-0.7-1.8-1.5-2.6-2.3c-2-2-4-3.9-5.8-6.1c-0.4-0.5-0.8-0.9-1.2-1.4c-0.3-0.3-0.5-0.6-0.7-0.9c-0.4-0.5-0.8-1.1-1.2-1.7
		c-0.6-0.9-1.3-1.8-1.9-2.7c-0.7-1-1.3-2.1-2-3.1c-0.8-1.3-1.5-2.6-2.2-3.9c-0.9-1.6-1.7-3.3-2.4-5c-0.2-0.4-0.4-0.8-0.5-1.2
		c-0.2-0.7-0.5-1.3-0.8-2c-0.3-0.8-0.6-1.5-0.9-2.3c-0.2-0.5-0.3-0.9-0.5-1.4c-0.2-0.5-0.3-1-0.5-1.5c-0.3-1-0.6-2.1-0.8-3.1
		c-0.2-0.7-0.3-1.5-0.5-2.2c-0.3-1.1-0.4-2.2-0.7-3.3c-0.1-0.3,0-0.6-0.2-1c-0.1-0.3-0.1-0.6-0.2-1C0,88.1,0.1,87.7,0,87.3
		c-0.1-0.4,0-0.9-0.2-1.3c-0.1-0.4,0-0.9-0.2-1.4c-0.1-0.3,0-0.6,0-1c0-0.3-0.1-0.6-0.1-1c0-0.4,0-0.8,0-1.2c0-1,0-2,0-2.9
		c0-0.1,0.1-0.3-0.2-0.3c0-0.8,0-1.6,0-2.4c0.2,0,0.2-0.2,0.2-0.3C-0.5,74.6-0.5,73.6-0.5,72.6z M78,13.8c-1,0-2,0-2.9,0
		c-0.6,0-1.2,0-1.8,0c-0.6,0-1.1-0.1-1.7,0.1c-0.6,0.2-1.2,0-1.8,0c-0.1,0-0.1,0-0.2,0c-0.6,0.4-1.4,0.1-2,0.3
		c-0.6,0.2-1.2,0.1-1.8,0.2c-0.4,0.1-0.9,0-1.3,0.2c-0.8,0.2-1.5,0.3-2.3,0.5c-0.4,0.1-0.7,0.1-1.1,0.2c-0.7,0.2-1.4,0.4-2.1,0.5
		c-0.8,0.2-1.5,0.4-2.2,0.6c-1.7,0.5-3.4,1.1-5,1.8c-1.5,0.6-2.9,1.2-4.4,1.9c-1.3,0.6-2.6,1.4-3.9,2.1c-1,0.5-1.9,1.1-2.8,1.7
		c-0.7,0.4-1.3,0.9-2,1.4c-0.4,0.3-0.8,0.6-1.2,0.8c-0.5,0.4-1,0.9-1.6,1.2c-1.2,0.8-2.3,1.8-3.3,2.8c-1.7,1.6-3.5,3.3-5,5.1
		c-0.8,1-1.7,1.9-2.5,3c-0.8,1-1.6,2.1-2.3,3.1c-0.5,0.8-1.1,1.6-1.6,2.5c-0.3,0.6-0.7,1.1-1,1.7c-0.4,0.6-0.7,1.2-1,1.8
		c-1.1,2.1-2.1,4.2-3,6.4c-0.2,0.6-0.6,1.3-0.7,1.9c-0.1,0.3-0.2,0.6-0.3,0.8c-0.1,0.3-0.2,0.5-0.2,0.8c-0.1,0.3-0.1,0.7-0.3,0.8
		c-0.2,0.3,0,0.7-0.3,0.8c-0.3,1.1-0.5,2.1-0.8,3.2c-0.1,0.5-0.2,1.1-0.4,1.6c-0.3,0.9-0.3,1.8-0.6,2.7c-0.1,0.3-0.1,0.6-0.2,1
		c-0.1,0.3-0.1,0.7-0.1,1.1c-0.1,0.4-0.1,0.9-0.2,1.4c-0.1,0.5-0.1,1-0.2,1.5c-0.1,1.1-0.1,2.3-0.2,3.5c0,0.6,0,1.3,0,1.9
		c0,0.8,0,1.6,0,2.3c0,0.8-0.1,1.5,0.2,2.3c-0.1,1,0.2,2,0.2,3c0,0.2,0.1,0.4,0.1,0.7c0,0.2,0,0.5,0,0.7c0,0,0,0.1,0,0.1
		c0.3,0.2,0.1,0.6,0.1,0.8c0.1,0.3,0.1,0.5,0.2,0.8c0.1,0.5,0,1,0.2,1.4c0.2,0.6,0.3,1.3,0.4,2c0.1,0.6,0.3,1.2,0.4,1.8
		c0.2,0.7,0.4,1.3,0.5,2c0.2,0.8,0.5,1.6,0.7,2.4c0.4,1.2,0.8,2.4,1.3,3.5c0.5,1.4,1.1,2.7,1.7,4c0.7,1.4,1.4,2.8,2.3,4.2
		c0.5,0.8,1,1.7,1.5,2.5c0.7,1,1.3,1.9,1.9,2.9c0.7,0.9,1.4,1.8,2.1,2.7c0.4,0.5,0.9,1,1.3,1.5c0.6,0.9,1.4,1.6,2.1,2.4
		c1.1,1.2,2.3,2.4,3.5,3.4c0.6,0.5,1.1,1,1.6,1.5c0.4,0.3,0.6,0.6,1,0.9c0.6,0.4,1.2,0.9,1.8,1.4c0.9,0.6,1.8,1.3,2.7,1.9
		c0.9,0.6,1.8,1.1,2.7,1.7c0.8,0.5,1.7,1,2.6,1.5c1.9,1,3.9,2,5.9,2.8c0.6,0.2,1.2,0.5,1.9,0.7c0.9,0.3,1.8,0.7,2.7,0.9
		c1,0.3,2,0.6,3.1,0.9c0.8,0.2,1.6,0.4,2.4,0.6c0.8,0.2,1.7,0.4,2.5,0.5c0.4,0.1,0.8,0,1,0.2c0.4,0.3,0.9-0.1,1.2,0.3
		c0.4-0.1,0.9,0.1,1.3,0.2c0.4,0.1,0.9,0,1.3,0.1c0.5,0.1,1.1,0,1.7,0.2c0.5,0.1,1.1,0.1,1.7,0c0.6,0,1.1,0.2,1.7,0.2
		c1.4-0.1,2.9,0.1,4.3-0.2c0.9-0.2,1.8,0.1,2.7-0.2c0.5-0.1,1,0,1.5-0.1c0.5-0.1,1,0,1.5-0.2c0.3-0.1,0.6,0,1-0.2
		c0.3-0.1,0.7,0.1,1-0.2c0.8,0.1,1.4-0.3,2.2-0.3c0.3-0.3,0.6-0.1,1-0.2c0.5-0.1,1-0.3,1.6-0.4c0.9-0.2,1.9-0.4,2.8-0.7
		c1.1-0.4,2.3-0.7,3.4-1.2c0.7-0.3,1.5-0.6,2.2-0.9c0.8-0.3,1.7-0.6,2.5-1c2-1,4-1.9,5.9-3.1c0.6-0.4,1.2-0.7,1.8-1.1
		c1-0.6,2-1.4,3-2.1c1.3-0.9,2.5-1.8,3.6-2.8c1-0.8,1.9-1.7,2.8-2.5c0.8-0.7,1.5-1.5,2.2-2.2c0.7-0.7,1.4-1.5,2.1-2.3
		c0,0,0.1-0.1,0.1-0.1c0.5-0.8,1.3-1.5,1.9-2.3c0.4-0.6,1-1.1,1.4-1.8c0.6-1,1.3-1.9,1.9-2.8c0.8-1.2,1.5-2.4,2.3-3.6
		c0.6-0.9,1-1.9,1.5-2.8c0.2-0.4,0.4-0.8,0.6-1.2c0.4-0.8,0.8-1.6,1.1-2.4c0.5-1.3,1.1-2.6,1.5-3.9c0.3-0.9,0.8-1.8,0.8-2.9
		c0.4-0.6,0.4-1.3,0.6-1.9c0.2-0.7,0.4-1.4,0.5-2.1c0.1-0.7,0.4-1.3,0.3-2c0.3-0.3,0.1-0.7,0.2-1c0.2-0.5,0.2-1,0.3-1.5
		c0.1-0.6,0.3-1.2,0.2-1.8c0.2-0.3,0.2-0.7,0.2-1.1c0-0.4,0.2-0.7,0.2-1.1c0-1.6,0.3-3.2,0.2-4.7c-0.1-1,0-1.9,0-2.9
		c0-0.2,0-0.5,0-0.7c-0.2,0-0.2,0-0.3,0c-14.7,0-29.4,0-44.1,0c-0.1,0-0.3,0-0.4,0c-0.1,0-0.3,0.1-0.4,0.2c0,1.9,0,3.8,0,5.7
		c13,0,26,0,39,0c0.1,0.1,0.2,0.2,0.3,0.3c-0.1,0.3-0.1,0.5-0.2,0.8c0,0.3,0,0.6,0,0.9c0,0.2,0.1,0.5,0,0.6c-0.2,0.3-0.1,0.7-0.1,1
		c0,0.3-0.1,0.6-0.2,1c-0.1,0.6,0,1.2-0.2,1.7c-0.2,0.4,0,0.8-0.2,1.3c-0.2,0.4,0,1-0.2,1.3c-0.2,0.3-0.1,0.7-0.2,1
		c-0.2,0.5-0.2,1-0.4,1.5c-0.2,0.6-0.3,1.2-0.5,1.8c-0.2,0.5-0.3,0.9-0.5,1.4c-0.2,0.5-0.3,0.9-0.5,1.4c-0.3,0.9-0.7,1.7-1,2.6
		c-0.4,1-0.8,2-1.2,2.9c-0.7,1.5-1.5,2.9-2.3,4.3c-0.4,0.7-0.9,1.4-1.3,2.2c-0.7,1.2-1.6,2.3-2.4,3.5c-0.4,0.6-0.9,1.2-1.4,1.7
		c-0.5,0.6-1.1,1.2-1.5,1.8c-0.2,0.3-0.6,0.6-0.8,0.9c-0.3,0.3-0.6,0.6-0.9,0.9c-0.3,0.3-0.5,0.5-0.8,0.8c-0.2,0.2-0.4,0.4-0.6,0.6
		c-0.2,0.2-0.4,0.5-0.7,0.7c-0.7,0.6-1.3,1.3-2,1.8c-0.9,0.7-1.8,1.5-2.8,2.2c-1,0.7-2.1,1.5-3.1,2.2c-0.7,0.5-1.5,0.9-2.2,1.4
		c-0.9,0.6-2,1-2.8,1.7c-0.4,0-0.7,0.3-1,0.4c-0.3,0.2-0.7,0.3-1,0.5c-0.7,0.4-1.5,0.7-2.2,1c-0.8,0.3-1.6,0.6-2.4,0.9
		c-0.8,0.3-1.6,0.5-2.4,0.9c-0.5,0-1,0.2-1.5,0.4c-0.5,0.2-1,0.2-1.5,0.4c-0.2,0.1-0.4,0.1-0.6,0.2c-0.6,0.1-1.2,0.2-1.8,0.4
		c-0.7,0.2-1.4,0.2-2.1,0.4c-0.2,0.1-0.4,0.1-0.7,0.2c-0.2,0-0.5-0.1-0.7,0c-0.3,0.1-0.5,0.1-0.7,0.1c-0.3,0-0.5,0.1-0.8,0.2
		c-0.5,0-0.9-0.1-1.4,0.2c-0.8-0.1-1.7,0.1-2.5,0.2c-0.6,0-1.3,0-1.9,0c-0.8,0-1.7,0-2.5,0c-0.8,0-1.7,0-2.5-0.1
		c-0.7-0.1-1.4,0-2.2-0.2c-0.7-0.1-1.4-0.1-2.1-0.2c0,0-0.1,0-0.1,0c-0.6-0.3-1.4-0.2-2-0.5c-0.5,0.1-0.9-0.2-1.3-0.2
		c-0.2,0-0.4-0.1-0.6-0.1c-0.2,0-0.4-0.1-0.7-0.1c-0.5-0.2-1.1-0.2-1.6-0.4c-0.7-0.2-1.4-0.4-2.1-0.6c-0.8-0.3-1.6-0.5-2.3-0.8
		c-0.8-0.3-1.7-0.7-2.6-1c-1-0.4-2-0.8-2.9-1.3c-1.7-0.8-3.3-1.6-4.9-2.6c-0.8-0.5-1.6-0.9-2.4-1.5c-0.6-0.4-1.3-0.9-1.9-1.4
		c-0.9-0.6-1.7-1.3-2.6-1.9c-0.4-0.3-0.8-0.7-1.2-1c-0.4-0.3-0.7-0.6-1.1-1c-0.4-0.3-0.8-0.6-1.1-1c-1.2-1.3-2.5-2.6-3.7-3.8
		c-0.1-0.1-0.1-0.1-0.2-0.2c-0.5-0.8-1.2-1.4-1.7-2.2c-0.5-0.8-1.2-1.5-1.7-2.3c-0.7-1.1-1.5-2.2-2.2-3.3c-0.5-0.9-1.1-1.6-1.5-2.5
		c-0.7-1.4-1.4-2.9-2.1-4.3c-0.5-1.2-0.9-2.4-1.4-3.6c-0.3-0.7-0.5-1.5-0.7-2.3c-0.2-0.8-0.5-1.6-0.7-2.4c-0.2-0.6-0.3-1.2-0.4-1.8
		c-0.1-0.6-0.3-1.2-0.4-1.8c-0.2-0.9-0.3-1.8-0.5-2.8c-0.1-0.4-0.1-0.9-0.2-1.3c0-0.4,0-0.9-0.1-1.3c-0.1-0.3-0.1-0.7,0-1
		c0.1-0.4-0.2-0.7-0.2-1.1c0-1.4,0-2.7,0-4.1c0-1.3-0.1-2.7,0.1-4c0.1-0.5,0-1.1,0.1-1.6c0.1-0.5-0.1-1,0.2-1.5
		c0-0.8,0.1-1.5,0.3-2.3c0.1-0.4,0-0.9,0.2-1.3c0.2-0.4,0.1-0.7,0.2-1.1c0.3-0.9,0.5-1.8,0.7-2.8c0.2-1,0.6-2.1,0.9-3.1
		c0.3-0.9,0.6-1.8,1-2.7c0.4-0.9,0.7-1.8,1.1-2.6c0.1-0.2,0.2-0.3,0.2-0.5c0.4-1.2,1.1-2.4,1.7-3.5c0.6-1,1.2-2.1,1.8-3.1
		c0.6-1.1,1.4-2.1,2.1-3.1c0.6-0.8,1.2-1.6,1.8-2.4c0.9-1.1,1.9-2.3,2.9-3.4c1.1-1.1,2.2-2.2,3.3-3.3c0.5-0.5,1-1,1.6-1.4
		c0.9-0.8,1.9-1.5,2.9-2.2c0.6-0.5,1.3-0.9,2-1.4c0.9-0.6,1.8-1.2,2.7-1.7c0.9-0.5,1.6-1,2.5-1.5c1.8-0.9,3.6-1.8,5.5-2.5
		c0.6-0.2,1.1-0.6,1.7-0.7c0.6-0.1,1.1-0.6,1.8-0.5c1.2-0.5,2.5-0.8,3.8-1.1c0.6-0.1,1.2-0.3,1.7-0.4c0.6-0.1,1.2-0.2,1.8-0.3
		c0.4-0.1,0.8-0.1,1.1-0.2c0.3-0.1,0.6,0,0.9-0.1c0.3-0.1,0.6-0.2,0.9-0.1c0.3,0.1,0.6-0.2,0.9-0.2c0.4,0,0.9,0.1,1.3-0.2
		c0.8,0.1,1.7-0.1,2.5-0.2c2,0,4.1,0,6.1,0C78,17.8,78,15.8,78,13.8z M78,104.2C78,84.1,78,64,78,44c-0.1-0.1-0.1-0.1-0.2-0.2
		c-1.8,0-3.6,0-5.4,0c-0.2,0-0.4,0-0.6,0.2c0,22,0,43.9,0,65.9c0.1,0.1,0.1,0.1,0.2,0.2c7,0,14,0,20.9,0c0-2,0-3.9,0-5.9
		C88,104.2,83,104.2,78,104.2z M41.6,52.9c0.1,0.3,0.2,0.7,0.2,1.1c0,1,0.4,1.9,0.8,2.8c0.4,1,1.3,2,2.1,2.8
		c0.7,0.6,1.4,1.1,2.3,1.5c1.2,0.6,2.5,0.8,3.8,0.9c0.3,0,0.5-0.2,0.8-0.1c0.8,0,1.6-0.2,2.4-0.5c0.6-0.2,1.3-0.6,1.9-0.9
		c0.7-0.4,1.3-1.1,1.9-1.7c0.5-0.5,0.8-1,1.2-1.6c0.2-0.3,0.2-0.6,0.4-0.9c0.2-0.3,0.2-0.6,0.3-0.9c0.1-0.4,0.3-0.7,0.3-1.2
		c0-0.4,0.2-0.8,0.2-1.2c0-0.4-0.2-0.9-0.2-1.3c0-0.5-0.2-0.9-0.3-1.3c-0.2-0.8-0.5-1.5-0.9-2.2c-0.3-0.5-0.8-0.9-1.1-1.4
		c-0.3-0.6-1-0.8-1.3-1.3c-0.9-0.5-1.8-1.1-2.9-1.3c-0.8-0.2-1.6-0.3-2.4-0.4c-0.4-0.1-0.7,0.2-1.1,0.2c-1,0-2,0.4-2.9,0.8
		c-0.8,0.3-1.5,0.9-2.2,1.4c-0.3,0.2-0.5,0.6-0.8,0.9c-0.7,0.8-1.2,1.6-1.6,2.6C41.9,50.6,41.8,51.7,41.6,52.9z"/>
	<path class="st1" d="M320,114.8c-6.3,0-12.7,0-19,0c0,0,0,0-0.1-0.1c0,0,0,0,0-0.1c0-2.4,0-4.8,0-7.4c-1,1.7-2.3,2.9-3.6,4.1
		c-0.8,0.8-1.8,1.4-2.8,2c-0.5,0.3-1,0.6-1.5,0.8c-1,0.5-2.1,0.9-3.2,1.3c-0.9,0.3-1.8,0.4-2.7,0.8c-0.3,0.1-0.7,0-1.1,0.2
		c-0.5,0.2-1.1,0.1-1.7,0.2c-1,0.2-2,0.1-3,0.1c-1,0-2,0-3,0c-0.4,0-0.9,0.1-1.3-0.1c-0.4-0.2-0.8,0-1.3-0.2
		c-0.4-0.1-0.8-0.1-1.2-0.2c-1-0.2-1.9-0.4-2.9-0.7c-0.9-0.3-1.8-0.6-2.7-0.9c-1.2-0.4-2.3-1-3.4-1.6c-1.1-0.6-2.2-1.2-3.2-2.1
		c-0.6-0.5-1.1-0.9-1.7-1.4c-1-0.8-1.8-1.7-2.7-2.6c-1.2-1.3-2.2-2.7-3.2-4.1c-0.9-1.4-1.7-2.8-2.4-4.3c-0.7-1.5-1.3-3-1.8-4.6
		c-0.3-1-0.6-2-0.9-3c-0.1-0.4-0.1-0.7-0.2-1.1c-0.2-0.6-0.2-1.2-0.4-1.8c-0.1-0.3,0-0.7-0.2-1.1c-0.2-0.5-0.1-1-0.2-1.5
		c0-0.3-0.1-0.6-0.2-0.9c0-0.3,0.1-0.6-0.2-0.9c0,0,0-0.1,0-0.2c0.1-1.1-0.3-2.2-0.2-3.3c0.1-0.8-0.2-1.6-0.2-2.4
		c0.1-0.8,0.1-1.6,0-2.4c0-0.5,0.2-1,0.2-1.5c0-0.5-0.1-1,0-1.5c0.2-0.6,0.1-1.1,0.1-1.7c0-0.3,0.1-0.5,0.2-0.8
		c0-0.3,0.1-0.5,0.1-0.7c0.1-0.4,0-0.8,0.2-1.2c-0.1-0.8,0.2-1.5,0.4-2.2c0.3-1.1,0.5-2.2,0.8-3.2c0.2-0.6,0.3-1.2,0.6-1.8
		c0.4-0.9,0.7-1.9,1.1-2.8c0.3-0.7,0.6-1.4,0.9-2c0.7-1.2,1.3-2.4,2.1-3.5c0.6-0.9,1.3-1.8,2-2.6c1.1-1.4,2.4-2.6,3.7-3.8
		c1.1-1.1,2.5-2,3.8-2.8c0.8-0.5,1.7-1,2.6-1.5c0.5-0.3,1-0.5,1.5-0.8c1.2-0.6,2.5-1,3.7-1.4c0.7-0.2,1.3-0.4,2-0.6
		c0.7-0.2,1.3-0.3,2-0.5c0.4-0.1,0.9-0.1,1.3-0.2c0.3,0,0.6-0.1,0.9-0.2c0.4-0.2,0.9,0,1.3-0.2c0.5-0.2,0.9,0,1.3-0.1
		c0.6-0.2,1.3,0,1.9-0.2c1-0.2,2-0.1,3-0.1c1,0,2,0,3,0c0.4,0,0.9,0.1,1.3,0.1c0.4,0,0.9-0.1,1.3,0c0.4,0.1,0.9,0,1.3,0.2
		c0.4,0.1,0.8,0,1.2,0.2c0.9,0.3,1.9,0.2,2.7,0.6c0.8,0,1.5,0.4,2.3,0.5c0.7,0.1,1.4,0.4,2,0.7c1.7,0.6,3.3,1.2,4.8,2.1
		c1.2,0.7,2.5,1.3,3.6,2.2c0.8,0.7,1.7,1.3,2.5,2c0.6,0.5,1.1,1,1.6,1.5c1.1,1.2,2.1,2.4,2.9,3.8c0.9,1.5,1.6,3.1,2.1,4.8
		c0.3,1.1,0.7,2.3,0.8,3.4c0.1,0.5,0.2,0.9,0.3,1.4c0.1,0.5,0.2,1,0.2,1.4c0.1,0.5,0.1,0.9,0.1,1.4c0,0,0.1,0.1,0.2,0.1
		c0,0.3,0,0.5,0,0.8c-7.8,0-15.6,0-23.4,0c-0.1-0.3-0.2-0.6-0.2-0.9c0-0.4-0.2-0.8-0.3-1.2c-0.2-0.9-0.6-1.7-1-2.5
		c-0.7-1.2-1.6-2.3-2.8-3.1c-0.8-0.5-1.7-1-2.7-1.3c-1-0.4-2-0.5-3-0.6c-1-0.2-2,0.2-3,0.1c-0.3,0.3-0.6,0.1-1,0.2
		c-1.1,0.4-2.3,0.8-3.3,1.4c-0.4,0.3-0.9,0.5-1.2,0.9c-0.7,0.7-1.5,1.4-2.1,2.2c-0.6,0.8-1.1,1.6-1.6,2.5c-0.8,1.5-1.3,3-1.7,4.6
		c-0.3,1-0.5,2.1-0.7,3.1c-0.1,0.7-0.3,1.5-0.3,2.2c-0.1,0.8-0.2,1.6-0.2,2.3c0,2.4-0.1,4.8,0.1,7.2c0.1,0.6,0.3,1.3,0.2,1.9
		c0.3,0.7,0.3,1.4,0.5,2.1c0.2,0.7,0.3,1.4,0.5,2.1c0.2,0.9,0.5,1.8,0.9,2.7c0.4,0.8,0.7,1.7,1.2,2.5c0.6,0.8,1.1,1.7,1.8,2.5
		c0.3,0.3,0.4,0.7,0.8,0.9c0.3,0.2,0.6,0.5,0.9,0.8c0.4,0.3,0.8,0.7,1.3,0.9c1.8,0.9,3.7,1.7,5.8,1.6c1.1,0,2.2,0.1,3.3-0.1
		c0.7-0.1,1.4-0.3,2-0.5c1.5-0.4,2.7-1.2,3.9-2.3c0.5-0.4,0.9-0.9,1.3-1.5c0.4-0.5,0.7-1,1-1.6c0.6-1.1,1.1-2.2,1.5-3.4
		c0.2-0.7,0.3-1.5,0.6-2.1c-0.1-0.5,0.3-1,0.1-1.5c-2.4,0-4.7,0-7.1,0c-2.4,0-4.7,0-7.1,0c-0.1-2.9-0.1-15.2,0.1-15.9
		c11.6,0,23.2,0,34.9,0C320,85.5,320,100.2,320,114.8z"/>
	<ellipse class="st2" cx="74.9" cy="152.7" rx="3.1" ry="0.1"/>
	<path class="st3" d="M-0.5,72.6c0,1,0,2,0,2.9c0,0.1,0.1,0.3-0.2,0.3c0-1.1,0-2.1,0-3.2C-0.7,72.6-0.6,72.6-0.5,72.6z"/>
	<path class="st4" d="M-0.5,81.5c-0.1,0-0.1,0-0.2,0c0-1.1,0-2.1,0-3.2c0.2,0,0.2,0.2,0.2,0.3C-0.5,79.5-0.5,80.5-0.5,81.5z"/>
	<path class="st1" d="M210.6,39.3c0,18.9,0,37.7,0,56.5c0.1,0.1,0.1,0.1,0.2,0.2c10.9,0,21.9,0,32.9,0c0,6.3,0,12.5,0,18.8
		c-18.5,0-36.9,0-55.4,0c0-25.1,0-50.3,0-75.5C195.8,39.3,203.2,39.3,210.6,39.3z"/>
</g>
</svg>
