<?xml version="1.0" encoding="utf-8"?>
<!-- Generator: Adobe Illustrator 24.3.0, SVG Export Plug-In . SVG Version: 6.00 Build 0)  -->
<svg version="1.1" id="Слой_1" xmlns="http://www.w3.org/2000/svg" xmlns:xlink="http://www.w3.org/1999/xlink" x="0px" y="0px"
	 viewBox="0 0 320 116" style="enable-background:new 0 0 320 116;" xml:space="preserve">
<style type="text/css">
	.st0{fill:#FF6700;}
	.st1{fill:#FF6801;}
	.st2{fill:#FF6802;}
	.st3{fill:#FF6903;}
</style>
<g>
	<path class="st0" d="M59.1,1c17.6,0,35.3,0,52.9,0c2.5,0,4.7,1.8,4.7,4.7c0,22.2,0,44.4,0,66.6c0,12.9,0,25.7,0,38.6
		c0,0.3,0,0.5,0,0.8c-0.1,2.5-2,4.3-4.5,4.3c-0.3,0-0.6,0-0.8,0c-35,0-70,0-105,0c-0.6,0-1.3,0-1.8-0.2c-1.9-0.5-3.1-2.2-3.1-4.1
		c0-0.2,0-0.5,0-0.7c0-35.1,0-70.2,0-105.3c0-0.5,0-1.1,0.2-1.6C2.1,2.4,4,1,5.9,1C23.7,1.1,41.4,1,59.1,1z M25.7,58.5
		c0,6.6,0,13.2,0,19.8c0,0.2,0,0.5,0,0.7c0,0.6,0.2,0.8,0.8,0.8c0.2,0,0.5,0,0.7,0c2.5,0,4.9,0,7.4,0c1.5,0,1.6-0.1,1.6-1.6
		c0-10.3,0-20.6,0-30.8c0-1.3,0-1.4,1.4-1.4c6.1,0,12.2,0,18.3,0c0.6,0,1.1,0,1.7,0.1c2.4,0.3,4.1,1.4,5.2,3.6
		c0.5,1.1,0.7,2.4,0.7,3.6c0,8.4,0,16.8,0,25.2c0,1.1,0.1,1.2,1.2,1.2c2.7,0,5.4,0,8.1,0c0.2,0,0.3,0,0.5,0c0.4,0,0.6-0.3,0.7-0.6
		c0-0.2,0-0.4,0-0.6c0-9.6,0-19.3,0-28.9c0-0.9-0.1-1.8-0.2-2.6c-0.7-4-3.1-6.8-6.6-8.6c-2-1.1-4.2-1.3-6.4-1.3
		c-11.2,0-22.4,0-33.6,0c-0.2,0-0.5,0-0.7,0c-0.5,0.1-0.7,0.3-0.7,0.8c0,0.2,0,0.5,0,0.7C25.7,45.3,25.7,51.9,25.7,58.5z M92.5,58.5
		c0-6.6,0-13.3,0-19.9c0-0.3,0-0.5,0-0.8c0-0.4-0.2-0.6-0.6-0.7c-0.3,0-0.5,0-0.8,0c-2.5,0-5,0-7.6,0c-1.5,0-1.5,0-1.5,1.5
		c0,13.3,0,26.5,0,39.8c0,0.2,0,0.4,0,0.6c0,0.6,0.2,0.8,0.8,0.8c0.2,0,0.4,0,0.6,0c2.5,0,5,0,7.5,0c1.5,0,1.5,0,1.5-1.5
		C92.5,71.7,92.5,65.1,92.5,58.5z M44.3,66.8c0,3.9,0,7.8,0,11.7c0,0.2,0,0.5,0,0.7c0,0.4,0.3,0.6,0.6,0.7c0.2,0,0.4,0,0.6,0
		c2.8,0,5.5,0,8.3,0c0.2,0,0.4,0,0.6,0c0.5-0.1,0.7-0.3,0.7-0.8c0-0.2,0-0.5,0-0.7c0-7.8,0-15.5,0-23.3c0-0.3,0-0.5,0-0.8
		c0-0.4-0.3-0.7-0.7-0.7c-0.1,0-0.3,0-0.4,0c-2.9,0-5.8,0-8.7,0c-0.1,0-0.2,0-0.3,0c-0.6,0-0.8,0.2-0.8,0.8c0,0.2,0,0.5,0,0.7
		C44.3,59,44.3,62.9,44.3,66.8z"/>
	<path class="st1" d="M262.1,48.3c0.4,1.4,0.8,2.8,1.2,4.1c0.4,0.2,0.6,0,0.8-0.3c1.9-2.8,4.6-4,7.8-4.3c2.1-0.2,4.1,0,6.1,0.5
		c2.1,0.6,3.9,1.8,5.1,3.7c0.4,0.6,0.9,0.6,1.3,0c1.6-2.3,3.8-3.6,6.5-4.1c2.4-0.5,4.9-0.4,7.2,0.3c3.7,1,5.8,3.5,6.5,7.2
		c0.3,1.3,0.4,2.7,0.4,4c0,6.9,0,13.8,0,20.7c0,0.2,0,0.4,0,0.7c-3,0-5.9,0-8.9,0c0-0.4,0-0.7,0-1c0-5.9,0-11.7,0-17.6
		c0-1.4,0-2.7-0.4-4c-0.5-1.5-1.3-2.7-2.9-3.2c-2.9-0.9-5.9,0.4-7.2,3.2c-0.5,1.1-0.7,2.2-0.8,3.4c-0.1,1.1-0.2,2.3-0.2,3.4
		c0,5,0,10,0,15c0,0.3,0,0.6,0,0.9c-0.6,0.2-7.3,0.3-8.9,0.1c0-0.3,0-0.6,0-1c0-5.9,0-11.8,0-17.7c0-1.4,0-2.7-0.4-4
		c-0.5-1.5-1.3-2.8-3-3.2c-2.3-0.6-5.6-0.1-7,3.3c-0.5,1.2-0.7,2.4-0.9,3.7c-0.1,1.2-0.2,2.4-0.2,3.6c0,4.8,0,9.5,0,14.3
		c0,0.3,0,0.6,0,1c-3,0-5.9,0-8.8,0c0,0,0,0,0,0c0,0,0,0,0-0.1c0-0.2-0.1-0.3-0.1-0.5c0-10.6,0-21.1,0-31.7c0-0.1,0-0.2,0.1-0.3
		C257.6,48.3,259.8,48.3,262.1,48.3z"/>
	<path class="st2" d="M127.5,38.3c1.6,0,3,0,4.4,0c1.6,0,3.2,0,4.8,0c0.6,0,0.9,0.1,1.2,0.7c2.2,3.7,4.4,7.3,6.6,11
		c0.6,1,1.2,2,1.8,3.1c0.1,0.2,0.2,0.4,0.4,0.6c3-5.1,6-10.2,9-15.3c3.2,0,6.4,0,9.8,0c-4.5,7.1-8.9,14.1-13.4,21.2
		c4.8,7.1,9.6,14.2,14.4,21.4c-3.5,0-6.9,0-10.4,0c-3.3-5.3-6.6-10.6-9.9-16.1c-3.4,5.4-6.7,10.8-9.9,16.1c-3.2,0-6.4,0-9.6,0
		c0,0,0-0.1,0-0.1c0,0,0-0.1,0-0.1c4.7-7.3,9.4-14.5,14.1-21.8C136.4,52.1,132,45.3,127.5,38.3z"/>
	<path class="st2" d="M205.3,60.6c-0.1-1.1-0.1-2.1-0.3-3.1c-0.3-1.8-1.5-2.8-3.3-3.1c-1.4-0.3-2.9-0.2-4.3,0.1
		c-1.9,0.3-3.7,0.9-5.5,1.7c-0.3,0.1-0.6,0.3-1,0.4c-1-1.9-1.9-3.9-3-6c0.2-0.1,0.4-0.3,0.7-0.4c4.5-2.1,9.3-2.9,14.2-2.5
		c1.6,0.1,3.1,0.4,4.6,1c4,1.5,6.1,4.5,6.5,8.7c0.1,0.8,0.1,1.6,0.1,2.4c0,6.7,0,13.5,0,20.2c0,0.3,0,0.6,0,1c-2.1,0-4.1,0-6.2,0
		c-0.6-1.5-1.2-3-1.8-4.5c-0.3,0.3-0.4,0.5-0.6,0.7c-1.3,1.5-2.8,2.9-4.8,3.6c-2.8,1-5.8,1.2-8.7,0.5c-3.4-0.8-5.7-2.9-6.6-6.3
		c-0.5-1.9-0.6-3.9-0.3-5.9c0.4-2.7,1.9-4.6,4.2-5.9c1.8-1,3.7-1.5,5.7-1.8c2.6-0.4,5.3-0.5,8-0.5C203.7,60.7,204.4,60.7,205.3,60.6
		z M205.2,65.9c-0.1,0-0.2,0-0.3,0c-1.5,0.1-3,0.1-4.5,0.2c-1.3,0.1-2.6,0.4-3.8,1c-1.3,0.6-2.1,1.7-2.3,3.1
		c-0.1,0.6-0.1,1.2-0.1,1.8c0.1,1.5,1,2.6,2.5,2.9c0.8,0.2,1.7,0.2,2.6,0.2c3.3-0.2,5.6-2.4,5.9-5.6
		C205.3,68.2,205.2,67.1,205.2,65.9z"/>
	<path class="st2" d="M234.7,47.5c3.2,0.1,6.1,0.7,8.8,2.4c3.3,2.1,5.3,5,6.3,8.7c1.2,4.3,1.1,8.7-0.3,13c-1.9,5.6-5.8,8.7-11.6,9.7
		c-2.8,0.4-5.5,0.4-8.2-0.4c-5-1.5-8.3-4.8-9.8-9.7c-0.9-2.8-1.2-5.6-0.9-8.5c0.1-2.1,0.5-4.1,1.3-6c1.9-4.8,5.4-7.7,10.5-8.7
		C232,47.7,233.3,47.7,234.7,47.5z M241.4,64.6c0-0.6,0-1.2,0-1.8c-0.1-1.8-0.4-3.6-1.3-5.3c-0.7-1.3-1.7-2.1-3.1-2.4
		c-1.2-0.3-2.3-0.4-3.5-0.2c-2,0.3-3.5,1.3-4.4,3.2c-0.2,0.5-0.4,1.1-0.5,1.6c-0.7,2.8-0.7,5.7-0.2,8.5c0.2,1.2,0.6,2.4,1.2,3.5
		c0.8,1.3,1.9,2,3.3,2.4c1.1,0.3,2.2,0.3,3.4,0.1c1.9-0.3,3.3-1.3,4.2-3.1c0.2-0.4,0.4-0.8,0.5-1.3
		C241.3,68.2,241.4,66.4,241.4,64.6z"/>
	<path class="st0" d="M171.4,48.3c3,0,5.9,0,8.8,0c0,10.9,0,21.7,0,32.6c-2.9,0-5.8,0-8.8,0C171.4,70.1,171.4,59.2,171.4,48.3z"/>
	<path class="st0" d="M318.6,48.4c0,10.9,0,21.7,0,32.6c-2.9,0-5.8,0-8.7,0c-0.2-0.6-0.2-30.9-0.1-32.6
		C312.7,48.4,315.6,48.4,318.6,48.4z"/>
	<path class="st3" d="M319,39.7c0,2.6-1.2,4-3.7,4.4c-1.1,0.2-2.3,0.1-3.4-0.2c-1.3-0.4-2.1-1.3-2.5-2.6c-0.2-1-0.2-2,0-2.9
		c0.3-1.3,1.2-2.2,2.4-2.6c1.4-0.4,2.7-0.5,4.1-0.1c1.8,0.5,2.8,1.6,2.9,3.5C319,39.4,319,39.6,319,39.7z"/>
	<path class="st3" d="M171,39.9c0-0.3,0-0.6,0.1-0.9c0.2-1.6,1-2.7,2.6-3.2c1.5-0.5,3-0.4,4.4,0c1.3,0.4,2.2,1.3,2.5,2.7
		c0.2,0.9,0.2,1.8,0,2.7c-0.3,1.3-1.1,2.2-2.4,2.7c-1.6,0.6-3.2,0.5-4.8,0c-1.4-0.5-2.2-1.6-2.4-3C171,40.5,171,40.2,171,39.9z"/>
</g>
</svg>
